<svg version="1.1" xmlns="http://www.w3.org/2000/svg" width="120" height="120">
<circle r="55" cx="54" cy="54" stroke="#047378" stroke-width="3.75" fill="none" stroke-dasharray="56 289.4" transform="rotate (-90,55,55)"/>
</svg>
